
{
  "tools": [
    {
        "id": "1",
        "title": "Tool Title",
        "icon": "https://i.ibb.co/YQ4BTZ9/jasper.png",
        "background_image": "background_image_url",
        "price": "Price",
        "stars": 5,
        "tags": ["tag1", "tag2"],
        "excerpt": "Short description of the tool. Lorem ipsum dolor sit amet, consectetur adipiscing elit. Sed ac semper nisl. Nulla facilisi. Sed ut lacus euismod, lacinia nunc ac, luctus mauris. Sed auctor, maur",
        "description": "Lorem ipsum dolor sit amet, consectetur adipiscing elit. Sed ac semper nisl. Nulla facilisi. Sed ut lacus euismod, lacinia nunc ac, luctus mauris. Sed auctor, mauris id sollicitudin viverra, augue nunc ultrices risus, et finibus tellus mi a risus. Sed auctor, mauris id sollicitudin viverra, augue nunc ultrices risus, et finibus tellus mi a risus. Sed auctor, mauris id sollicitudin viverra, augue nunc ultrices risus, et finibus tellus mi a risus.",
        "link": "tool_link",
        "isBookmarked": true,
        "totalBookmarked": 500,
        "category": "AI productivity tools"
    },
    {
        "id": "2",
        "title": "Tool Title 2",
        "icon": "https://i.ibb.co/YQ4BTZ9/jasper.png",
        "background_image": "background_image_url_2",
        "price": "Price 2",
        "stars": 4,
        "tags": ["tag3", "tag4"],
        "excerpt": "Short description of the tool 2. Lorem ipsum dolor sit amet, consectetur adipiscing elit. Sed ac semper nisl. Nulla facilisi. Sed ut lacus euismod, lacinia nunc ac, luctus mauris.",
        "description": "Lorem ipsum dolor sit amet, consectetur adipiscing elit. Sed ac semper nisl. Nulla facilisi. Sed ut lacus euismod, lacinia nunc ac, luctus mauris. Sed auctor, mauris id sollicitudin viverra, augue nunc ultrices risus, et finibus tellus mi a risus. Sed auctor, mauris id sollicitudin viverra, augue nunc ultrices risus, et finibus tellus mi a risus. Sed auctor, mauris id sollicitudin viverra, augue nunc ultrices risus, et finibus tellus mi a risus.",
        "link": "tool_link_2",
        "isBookmarked": false,
        "totalBookmarked": 500,
        "category": "AI image generators"
    },
    {
        "id": "3",
        "title": "Tool Title 3",
        "icon": "https://i.ibb.co/YQ4BTZ9/jasper.png",
        "background_image": "background_image_url_3",
        "price": "Price 3",
        "stars": 3,
        "tags": ["tag5", "tag6"],
        "excerpt": "Short description of the tool 3. Lorem ipsum dolor sit amet, consectetur adipiscing elit. Sed ac semper nisl. Nulla facilisi. Sed ut lacus euismod, lacinia nunc ac, luctus mauris.",
        "description": "Lorem ipsum dolor sit amet, consectetur adipiscing elit. Sed ac semper nisl. Nulla facilisi. Sed ut lacus euismod, lacinia nunc ac, luctus mauris. Sed auctor, mauris id sollicitudin viverra, augue nunc ultrices risus, et finibus tellus mi a risus. Sed auctor, mauris id sollicitudin viverra, augue nunc ultrices risus, et finibus tellus mi a risus.",
        "link": "tool_link_3",
        "isBookmarked": true,
        "totalBookmarked": 500,
        "category": "AI text generators"
    },
    {
        "id": "4",
        "title": "Tool Title 4",
        "icon": "https://i.ibb.co/YQ4BTZ9/jasper.png",
        "background_image": "background_image_url_4",
        "price": "Price 4",
        "stars": 2,
        "tags": ["tag7", "tag8"],
        "excerpt": "Short description of the tool 4. Lorem ipsum dolor sit amet, consectetur adipiscing elit. Sed ac semper nisl. Nulla facilisi. Sed ut lacus euismod, lacinia nunc ac, luctus mauris.",
        "description": "Lorem ipsum dolor sit amet, consectetur adipiscing elit. Sed ac semper nisl. Nulla facilisi. Sed ut lacus euismod, lacinia nunc ac, luctus mauris. Sed auctor, mauris id sollicitudin viverra, augue nunc ultrices risus, et finibus tellus mi a risus. Sed auctor, mauris id sollicitudin viverra, augue nunc ultrices risus, et finibus tellus mi a risus.",
        "link": "tool_link_4",
        "isBookmarked": false,
        "totalBookmarked": 500,
        "category": "AI video generators"
    },
    {
        "id": "5",
        "title": "Tool Title 5",
        "icon": "https://i.ibb.co/YQ4BTZ9/jasper.png",
        "background_image": "background_image_url_5",
        "price": "Price 5",
        "stars": 1,
        "tags": ["tag9", "tag10"],
        "excerpt": "Short description of the tool 5. Lorem ipsum dolor sit amet, consectetur adipiscing elit. Sed ac semper nisl. Nulla facilisi. Sed ut lacus euismod, lacinia nunc ac, luctus mauris.",
        "description": "Lorem ipsum dolor sit amet, consectetur adipiscing elit. Sed ac semper nisl. Nulla facilisi. Sed ut lacus euismod, lacinia nunc ac, luctus mauris. Sed auctor, mauris id sollicitudin viverra, augue nunc ultrices risus, et finibus tellus mi a risus. Sed auctor, mauris id sollicitudin viverra, augue nunc ultrices risus, et finibus tellus mi a risus.",
        "link": "tool_link_5",
        "isBookmarked": true,
        "totalBookmarked": 500,
        "category": "AI art generators"
    },
    {
        "id": "6",
        "title": "Tool Title 6",
        "icon": "https://i.ibb.co/YQ4BTZ9/jasper.png",
        "background_image": "background_image_url_6",
        "price": "Price 6",
        "stars": 5,
        "tags": ["tag11", "tag12"],
        "excerpt": "Short description of the tool 6. Lorem ipsum dolor sit amet, consectetur adipiscing elit. Sed ac semper nisl. Nulla facilisi. Sed ut lacus euismod, lacinia nunc ac, luctus mauris.",
        "description": "Lorem ipsum dolor sit amet, consectetur adipiscing elit. Sed ac semper nisl. Nulla facilisi. Sed ut lacus euismod, lacinia nunc ac, luctus mauris. Sed auctor, mauris id sollicitudin viverra, augue nunc ultrices risus, et finibus tellus mi a risus. Sed auctor, mauris id sollicitudin viverra, augue nunc ultrices risus, et finibus tellus mi a risus.",
        "link": "tool_link_6",
        "isBookmarked": false,
        "totalBookmarked": 500,
        "category": "AI Code generators"
    },
    {
        "id": "7",
        "title": "Tool Title 7",
        "icon": "https://i.ibb.co/YQ4BTZ9/jasper.png",
        "background_image": "background_image_url_7",
        "price": "Price 7",
        "stars": 4,
        "tags": ["tag13", "tag14"],
        "excerpt": "Short description of the tool 7. Lorem ipsum dolor sit amet, consectetur adipiscing elit. Sed ac semper nisl. Nulla facilisi. Sed ut lacus euismod, lacinia nunc ac, luctus mauris.",
        "description": "Lorem ipsum dolor sit amet, consectetur adipiscing elit. Sed ac semper nisl. Nulla facilisi. Sed ut lacus euismod, lacinia nunc ac, luctus mauris. Sed auctor, mauris id sollicitudin viverra, augue nunc ultrices risus, et finibus tellus mi a risus. Sed auctor, mauris id sollicitudin viverra, augue nunc ultrices risus, et finibus tellus mi a risus.",
        "link": "tool_link_7",
        "isBookmarked": true,
        "totalBookmarked": 500,
        "category": "AI Audio generators"
    },
    {
        "id": "8",
        "title": "Tool Title 8",
        "icon": "https://i.ibb.co/YQ4BTZ9/jasper.png",
        "background_image": "background_image_url_8",
        "price": "Price 8",
        "stars": 3,
        "tags": ["tag15", "tag16"],
        "excerpt": "Short description of the tool 8. Lorem ipsum dolor sit amet, consectetur adipiscing elit. Sed ac semper nisl. Nulla facilisi. Sed ut lacus euismod, lacinia nunc ac, luctus mauris.",
        "description": "Lorem ipsum dolor sit amet, consectetur adipiscing elit. Sed ac semper nisl. Nulla facilisi. Sed ut lacus euismod, lacinia nunc ac, luctus mauris. Sed auctor, mauris id sollicitudin viverra, augue nunc ultrices risus, et finibus tellus mi a risus. Sed auctor, mauris id sollicitudin viverra, augue nunc ultrices risus, et finibus tellus mi a risus.",
        "link": "tool_link_8",
        "isBookmarked": false,
        "totalBookmarked": 500,
        "category": "AI Asistencia"
    },
    {
        "id": "9",
        "title": "Tool Title 9",
        "icon": "https://i.ibb.co/YQ4BTZ9/jasper.png",
        "background_image": "background_image_url_9",
        "price": "Price 9",
        "stars": 2,
        "tags": ["tag17", "tag18"],
        "excerpt": "Short description of the tool 9. Lorem ipsum dolor sit amet, consectetur adipiscing elit. Sed ac semper nisl. Nulla facilisi. Sed ut lacus euismod, lacinia nunc ac, luctus mauris.",
        "description": "Lorem ipsum dolor sit amet, consectetur adipiscing elit. Sed ac semper nisl. Nulla facilisi. Sed ut lacus euismod, lacinia nunc ac, luctus mauris. Sed auctor, mauris id sollicitudin viverra, augue nunc ultrices risus, et finibus tellus mi a risus. Sed auctor, mauris id sollicitudin viverra, augue nunc ultrices risus, et finibus tellus mi a risus.",
        "link": "tool_link_9",
        "isBookmarked": true,
        "totalBookmarked": 500,
        "category": "AI Educacion"
    },
    {
        "id": "10",
        "title": "Tool Title 10",
        "icon": "https://i.ibb.co/YQ4BTZ9/jasper.png",
        "background_image": "background_image_url_10",
        "price": "Price 10",
        "stars": 1,
        "tags": ["tag19", "tag20"],
        "excerpt": "Short description of the tool 10. Lorem ipsum dolor sit amet, consectetur adipiscing elit. Sed ac semper nisl. Nulla facilisi. Sed ut lacus euismod, lacinia nunc ac, luctus mauris.",
        "description": "Lorem ipsum dolor sit amet, consectetur adipiscing elit. Sed ac semper nisl. Nulla facilisi. Sed ut lacus euismod, lacinia nunc ac, luctus mauris. Sed auctor, mauris id sollicitudin viverra, augue nunc ultrices risus, et finibus tellus mi a risus. Sed auctor, mauris id sollicitudin viverra, augue nunc ultrices risus, et finibus tellus mi a risus.",
        "link": "tool_link_10",
        "isBookmarked": false,
        "totalBookmarked": 500,
        "category": "AI Salud"
    },
    {
        "id": "11",
        "title": "Tool Title 11",
        "icon": "https://i.ibb.co/YQ4BTZ9/jasper.png",
        "background_image": "background_image_url_11",
        "price": "Price 11",
        "stars": 5,
        "tags": ["tag21", "tag22"],
        "excerpt": "Short description of the tool 11. Lorem ipsum dolor sit amet, consectetur adipiscing elit. Sed ac semper nisl. Nulla facilisi. Sed ut lacus euismod, lacinia nunc ac, luctus mauris.",
        "description": "Lorem ipsum dolor sit amet, consectetur adipiscing elit. Sed ac semper nisl. Nulla facilisi. Sed ut lacus euismod, lacinia nunc ac, luctus mauris. Sed auctor, mauris id sollicitudin viverra, augue nunc ultrices risus, et finibus tellus mi a risus. Sed auctor, mauris id sollicitudin viverra, augue nunc ultrices risus, et finibus tellus mi a risus.",
        "link": "tool_link_11",
        "isBookmarked": true,
        "totalBookmarked": 500,
        "category": "Other AI Tools"
    },
    {
        "id": "12",
        "title": "Tool Title 12",
        "icon": "https://i.ibb.co/YQ4BTZ9/jasper.png",
        "background_image": "background_image_url_12",
        "price": "Price 12",
        "stars": 4,
        "tags": ["tag23", "tag24"],
        "excerpt": "Short description of the tool 12. Lorem ipsum dolor sit amet, consectetur adipiscing elit. Sed ac semper nisl. Nulla facilisi. Sed ut lacus euismod, lacinia nunc ac, luctus mauris.",
        "description": "Lorem ipsum dolor sit amet, consectetur adipiscing elit. Sed ac semper nisl. Nulla facilisi. Sed ut lacus euismod, lacinia nunc ac, luctus mauris. Sed auctor, mauris id sollicitudin viverra, augue nunc ultrices risus, et finibus tellus mi a risus. Sed auctor, mauris id sollicitudin viverra, augue nunc ultrices risus, et finibus tellus mi a risus.",
        "link": "tool_link_12",
        "isBookmarked": false,
        "totalBookmarked": 500,
        "category":  "AI productivity tools"
    },
    {
        "id": "13",
        "title": "Tool Title 13",
        "icon": "https://i.ibb.co/YQ4BTZ9/jasper.png",
        "background_image": "background_image_url_13",
        "price": "Price 13",
        "stars": 3,
        "tags": ["tag25", "tag26"],
        "excerpt": "Short description of the tool 12. Lorem ipsum dolor sit amet, consectetur adipiscing elit. Sed ac semper nisl. Nulla facilisi. Sed ut lacus euismod, lacinia nunc ac, luctus mauris.",
        "description": "Lorem ipsum dolor sit amet, consectetur adipiscing elit. Sed ac semper nisl. Nulla facilisi. Sed ut lacus euismod, lacinia nunc ac, luctus mauris. Sed auctor, mauris id sollicitudin viverra, augue nunc ultrices risus, et finibus tellus mi a risus. Sed auctor, mauris id sollicitudin viverra, augue nunc ultrices risus, et finibus tellus mi a risus.",
        "link": "tool_link_14",
        "isBookmarked": false,
        "totalBookmarked": 500,
        "category":  "AI image generators"
    },
    {
        "id": "15",
        "title": "Tool Title 15",
        "icon": "https://i.ibb.co/YQ4BTZ9/jasper.png",
        "background_image": "background_image_url_15",
        "price": "Price 15",
        "stars": 1,
        "tags": ["tag29", "tag30"],
        "excerpt": "Lorem ipsum dolor sit amet, consectetur adipiscing elit. Sed ac semper nisl. Nulla facilisi. Sed ut lacus euismod, lacinia nunc ac, luctus mauris. Sed auctor, mauris",
        "description": "Lorem ipsum dolor sit amet, consectetur adipiscing elit. Sed ac semper nisl. Nulla facilisi. Sed ut lacus euismod, lacinia nunc ac, luctus mauris. Sed auctor, mauris id sollicitudin viverra, augue nunc ultrices risus, et finibus tellus mi a risus. Sed auctor, mauris id sollicitudin viverra, augue nunc ultrices risus, et finibus tellus mi a risus.",
        "link": "tool_link_15",
        "isBookmarked": true,
        "totalBookmarked": 500,
        "category":  "AI text generators"
    },
    {
        "id": "16",
        "title": "Tool Title 16",
        "icon": "https://i.ibb.co/YQ4BTZ9/jasper.png",
        "background_image": "background_image_url_16",
        "price": "Price 16",
        "stars": 5,
        "tags": ["tag31", "tag32"],
        "excerpt": "Short description of the tool 12. Lorem ipsum dolor sit amet, consectetur adipiscing elit. Sed ac semper nisl. Nulla facilisi. Sed ut lacus euismod, lacinia nunc ac, luctus mauris.",
        "description": "Lorem ipsum dolor sit amet, consectetur adipiscing elit. Sed ac semper nisl. Nulla facilisi. Sed ut lacus euismod, lacinia nunc ac, luctus mauris. Sed auctor, mauris id sollicitudin viverra, augue nunc ultrices risus, et finibus tellus mi a risus. Sed auctor, mauris id sollicitudin viverra, augue nunc ultrices risus, et finibus tellus mi a risus.",
        "link": "tool_link_16",
        "isBookmarked": false,
        "totalBookmarked": 500,
        "category":  "AI video generators"
    },
    {
        "id": "17",
        "title": "Tool Title 17",
        "icon": "https://i.ibb.co/YQ4BTZ9/jasper.png",
        "background_image": "background_image_url_17",
        "price": "Price 17",
        "stars": 4,
        "tags": ["tag33", "tag34"],
        "excerpt": "Short description of the tool 12. Lorem ipsum dolor sit amet, consectetur adipiscing elit. Sed ac semper nisl. Nulla facilisi. Sed ut lacus euismod, lacinia nunc ac, luctus mauris.",
        "description": "Lorem ipsum dolor sit amet, consectetur adipiscing elit. Sed ac semper nisl. Nulla facilisi. Sed ut lacus euismod, lacinia nunc ac, luctus mauris. Sed auctor, mauris id sollicitudin viverra, augue nunc ultrices risus, et finibus tellus mi a risus. Sed auctor, mauris id sollicitudin viverra, augue nunc ultrices risus, et finibus tellus mi a risus.",
        "link": "tool_link_17",
        "isBookmarked": true,
        "totalBookmarked": 500,
        "category":  "AI art generators"
    },
    {
        "id": "18",
        "title": "Tool Title 18",
        "icon": "https://i.ibb.co/YQ4BTZ9/jasper.png",
        "background_image": "background_image_url_18",
        "price": "Price 18",
        "stars": 3,
        "tags": ["tag35", "tag36"],
        "excerpt": "Short description of the tool 12. Lorem ipsum dolor sit amet, consectetur adipiscing elit. Sed ac semper nisl. Nulla facilisi. Sed ut lacus euismod, lacinia nunc ac, luctus mauris.",
        "description": "Lorem ipsum dolor sit amet, consectetur adipiscing elit. Sed ac semper nisl. Nulla facilisi. Sed ut lacus euismod, lacinia nunc ac, luctus mauris. Sed auctor, mauris id sollicitudin viverra, augue nunc ultrices risus, et finibus tellus mi a risus. Sed auctor, mauris id sollicitudin viverra, augue nunc ultrices risus, et finibus tellus mi a risus.",
        "link": "tool_link_18",
        "isBookmarked": false,
        "totalBookmarked": 500,
        "category":  "AI Code generators"
    },
    {
        "id": "19",
        "title": "Tool Title 19",
        "icon": "https://i.ibb.co/YQ4BTZ9/jasper.png",
        "background_image": "background_image_url_19",
        "price": "Price 19",
        "stars": 2,
        "tags": ["tag37", "tag38"],
        "excerpt": "Short description of the tool 12. Lorem ipsum dolor sit amet, consectetur adipiscing elit. Sed ac semper nisl. Nulla facilisi. Sed ut lacus euismod, lacinia nunc ac, luctus mauris.",
        "description": "Lorem ipsum dolor sit amet, consectetur adipiscing elit. Sed ac semper nisl. Nulla facilisi. Sed ut lacus euismod, lacinia nunc ac, luctus mauris. Sed auctor, mauris id sollicitudin viverra, augue nunc ultrices risus, et finibus tellus mi a risus. Sed auctor, mauris id sollicitudin viverra, augue nunc ultrices risus, et finibus tellus mi a risus.",
        "link": "tool_link_19",
        "isBookmarked": true,
        "totalBookmarked": 500,
        "category":  "AI Audio generators"
    },
    {
        "id": "20",
        "title": "Tool Title 20",
        "icon": "https://i.ibb.co/YQ4BTZ9/jasper.png",
        "background_image": "background_image_url_20",
        "price": "Price 20",
        "stars": 1,
        "tags": ["tag39", "tag40"],
        "excerpt": "Short description of the tool 12. Lorem ipsum dolor sit amet, consectetur adipiscing elit. Sed ac semper nisl. Nulla facilisi. Sed ut lacus euismod, lacinia nunc ac, luctus mauris.",
        "description": "Lorem ipsum dolor sit amet, consectetur adipiscing elit. Sed ac semper nisl. Nulla facilisi. Sed ut lacus euismod, lacinia nunc ac, luctus mauris. Sed auctor, mauris id sollicitudin viverra, augue nunc ultrices risus, et finibus tellus mi a risus. Sed auctor, mauris id sollicitudin viverra, augue nunc ultrices risus, et finibus tellus mi a risus.",
        "link": "tool_link_20",
        "isBookmarked": false,
        "totalBookmarked": 500,
        "category":  "AI Asistencia"
    },
    {
        "id": "21",
        "title": "Tool Title 21",
        "icon": "https://i.ibb.co/YQ4BTZ9/jasper.png",
        "background_image": "background_image_url_21",
        "price": "Price 21",
        "stars": 5,
        "tags": ["tag41", "tag42"],
        "excerpt": "Short description of the tool 12. Lorem ipsum dolor sit amet, consectetur adipiscing elit. Sed ac semper nisl. Nulla facilisi. Sed ut lacus euismod, lacinia nunc ac, luctus mauris.",
        "description": "Lorem ipsum dolor sit amet, consectetur adipiscing elit. Sed ac semper nisl. Nulla facilisi. Sed ut lacus euismod, lacinia nunc ac, luctus mauris. Sed auctor, mauris id sollicitudin viverra, augue nunc ultrices risus, et finibus tellus mi a risus. Sed auctor, mauris id sollicitudin viverra, augue nunc ultrices risus, et finibus tellus mi a risus.",
        "link": "tool_link_21",
        "isBookmarked": true,
        "totalBookmarked": 500,
        "category":  "AI Educacion"
    },
    {
        "id": "22",
        "title": "Tool Title 22",
        "icon": "https://i.ibb.co/YQ4BTZ9/jasper.png",
        "background_image": "background_image_url_22",
        "price": "Price 22",
        "stars": 4,
        "tags": ["tag43", "tag44"],
        "excerpt": "Short description of the tool 12. Lorem ipsum dolor sit amet, consectetur adipiscing elit. Sed ac semper nisl. Nulla facilisi. Sed ut lacus euismod, lacinia nunc ac, luctus mauris.",
        "description": "Lorem ipsum dolor sit amet, consectetur adipiscing elit. Sed ac semper nisl. Nulla facilisi. Sed ut lacus euismod, lacinia nunc ac, luctus mauris. Sed auctor, mauris id sollicitudin viverra, augue nunc ultrices risus, et finibus tellus mi a risus. Sed auctor, mauris id sollicitudin viverra, augue nunc ultrices risus, et finibus tellus mi a risus.",
        "link": "tool_link_22",
        "isBookmarked": false,
        "totalBookmarked": 500,
        "category":  "AI Salud"
    },
    {
        "id": "23",
        "title": "Tool Title 23",
        "icon": "https://i.ibb.co/YQ4BTZ9/jasper.png",
        "background_image": "background_image_url_23",
        "price": "Price 23",
        "stars": 3,
        "tags": ["tag45", "tag46"],
        "excerpt": "Short description of the tool 12. Lorem ipsum dolor sit amet, consectetur adipiscing elit. Sed ac semper nisl. Nulla facilisi. Sed ut lacus euismod, lacinia nunc ac, luctus mauris.",
        "description": "Lorem ipsum dolor sit amet, consectetur adipiscing elit. Sed ac semper nisl. Nulla facilisi. Sed ut lacus euismod, lacinia nunc ac, luctus mauris. Sed auctor, mauris id sollicitudin viverra, augue nunc ultrices risus, et finibus tellus mi a risus. Sed auctor, mauris id sollicitudin viverra, augue nunc ultrices risus, et finibus tellus mi a risus.",
        "link": "tool_link_23",
        "isBookmarked": true,
        "totalBookmarked": 500,
        "category":  "Other AI Tools"
    },
    {
        "id": "24",
        "title": "Tool Title 24",
        "icon": "https://i.ibb.co/YQ4BTZ9/jasper.png",
        "background_image": "background_image_url_24",
        "price": "Price 24",
        "stars": 2,
        "tags": ["tag47", "tag48"],
        "excerpt": "Short description of the tool 12. Lorem ipsum dolor sit amet, consectetur adipiscing elit. Sed ac semper nisl. Nulla facilisi. Sed ut lacus euismod, lacinia nunc ac, luctus mauris.",
        "description": "Lorem ipsum dolor sit amet, consectetur adipiscing elit. Sed ac semper nisl. Nulla facilisi. Sed ut lacus euismod, lacinia nunc ac, luctus mauris. Sed auctor, mauris id sollicitudin viverra, augue nunc ultrices risus, et finibus tellus mi a risus. Sed auctor, mauris id sollicitudin viverra, augue nunc ultrices risus, et finibus tellus mi a risus.",
        "link": "tool_link_24",
        "isBookmarked": false,
        "totalBookmarked": 500,
        "category": "AI productivity tools"
    },
    {
        "id": "25",
        "title": "Tool Title 25",
        "icon": "https://i.ibb.co/YQ4BTZ9/jasper.png",
        "background_image": "background_image_url_25",
        "price": "Price 25",
        "stars": 1,
        "tags": ["tag49", "tag50"],
       "excerpt": "Short description of the tool 12. Lorem ipsum dolor sit amet, consectetur adipiscing elit. Sed ac semper nisl. Nulla facilisi. Sed ut lacus euismod, lacinia nunc ac, luctus mauris.",
        "description": "Lorem ipsum dolor sit amet, consectetur adipiscing elit. Sed ac semper nisl. Nulla facilisi. Sed ut lacus euismod, lacinia nunc ac, luctus mauris. Sed auctor, mauris id sollicitudin viverra, augue nunc ultrices risus, et finibus tellus mi a risus. Sed auctor, mauris id sollicitudin viverra, augue nunc ultrices risus, et finibus tellus mi a risus.",
        "link": "tool_link_25",
        "isBookmarked": true,
        "totalBookmarked": 500,
        "category": "AI productivity tools"
    }
  ],
  "pagination":{
  "currentPage": 1,
  "totalPages": 2,
  "totalItems": 25
  }
}
